        -:    0:Source:./medianT.c
        -:    0:Graph:./medianT.gcno
        -:    0:Data:./medianT.gcda
        -:    0:Runs:1
        -:    0:Programs:1
        -:    1:#include <stdio.h>
        -:    2:#include<math.h>
        -:    3:
        -:    4:int main(void) 
        -:    5:{ 
        -:    6:  int a ;
        -:    7:  int b ;
        -:    8:  int c ;
        -:    9:  int printf_tmp0 ;
        -:   10:
        -:   11:  {
        1:   12:  printf("Please enter 3 numbers separated by spaces > ");
        1:   13:  scanf("%d%d%d", & a, & b, & c);
        3:   14:  if ((a > b && a < c) || (a < b && a > c)) {
    #####:   15:    printf_tmp0 = a;
    #####:   16:  } else
        2:   17:  if ((b > a && b < c) || (b < a && b > c)) {
        1:   18:    printf_tmp0 = b;
        1:   19:  } else {
    #####:   20:    printf_tmp0 = c;
        -:   21:  }
        -:   22:  {
        1:   23:  printf("%d is the median\n", printf_tmp0);
        1:   24:  return (0);
        -:   25:  }
        -:   26:}
        -:   27:}
        -:   28:
